<svg width="27" height="27" viewBox="0 0 27 27" fill="none" xmlns="http://www.w3.org/2000/svg">
<path fill-rule="evenodd" clip-rule="evenodd" d="M13.5 0C20.9439 0 27 6.0561 27 13.5C27 20.9439 20.9439 27 13.5 27C6.0561 27 0 20.9439 0 13.5C0 6.0561 6.0561 0 13.5 0ZM13.5 2.025C7.17255 2.025 2.025 7.17255 2.025 13.5C2.025 19.8274 7.17255 24.975 13.5 24.975C19.8274 24.975 24.975 19.8274 24.975 13.5C24.975 7.17255 19.8274 2.025 13.5 2.025ZM13.5053 17.2745C14.2518 17.2745 14.8553 17.8779 14.8553 18.6245C14.8553 19.371 14.2518 19.9745 13.5053 19.9745C12.7587 19.9745 12.1485 19.371 12.1485 18.6245C12.1485 17.8779 12.7466 17.2745 13.4918 17.2745H13.5053ZM13.492 7.3629C14.0509 7.3629 14.5045 7.8165 14.5045 8.3754V14.3411C14.5045 14.9 14.0509 15.3536 13.492 15.3536C12.9331 15.3536 12.4795 14.9 12.4795 14.3411V8.3754C12.4795 7.8165 12.9331 7.3629 13.492 7.3629Z" fill="#1D1D42"/>
</svg>
